%YAML 1.1
%TAG !u! tag:unity3d.com,2011:
--- !u!114 &11400000
MonoBehaviour:
  m_ObjectHideFlags: 0
  m_PrefabParentObject: {fileID: 0}
  m_PrefabInternal: {fileID: 0}
  m_GameObject: {fileID: 0}
  m_Enabled: 1
  m_EditorHideFlags: 0
  m_Script: {fileID: 11500000, guid: 871de7d357e814bfbb698fd4d7380a10, type: 3}
  m_Name: 1
  m_EditorClassIdentifier: 
  Line: How be ye?
  IsAutoClosing: 0
  AutoCloseTimeout: 0
  HasPrev: 0
  PrevText: Prev
  HasNext: 0
  NextText: Next
  HasAlternative1: 1
  AlternativeText1: Good
  Alternative1TriggerEvents:
    m_PersistentCalls:
      m_Calls:
      - m_Target: {fileID: 114843874743519716, guid: 49c08996551809b419c90187db8c821a,
          type: 2}
        m_MethodName: ShowLine
        m_Mode: 3
        m_Arguments:
          m_ObjectArgument: {fileID: 0}
          m_ObjectArgumentAssemblyTypeName: UnityEngine.Object, UnityEngine
          m_IntArgument: 2
          m_FloatArgument: 0
          m_StringArgument: Hamish.ShowNextLine(2)
          m_BoolArgument: 0
        m_CallState: 1
    m_TypeName: UnityEngine.Events.UnityEvent, UnityEngine.CoreModule, Version=0.0.0.0,
      Culture=neutral, PublicKeyToken=null
  HasAlternative2: 1
  AlternativeText2: Wretched
  Alternative2TriggerEvents:
    m_PersistentCalls:
      m_Calls:
      - m_Target: {fileID: 114843874743519716, guid: 49c08996551809b419c90187db8c821a,
          type: 2}
        m_MethodName: ShowLine
        m_Mode: 3
        m_Arguments:
          m_ObjectArgument: {fileID: 0}
          m_ObjectArgumentAssemblyTypeName: UnityEngine.Object, UnityEngine
          m_IntArgument: 3
          m_FloatArgument: 0
          m_StringArgument: Hamish.ShowNextLine(3)
          m_BoolArgument: 0
        m_CallState: 1
    m_TypeName: UnityEngine.Events.UnityEvent, UnityEngine.CoreModule, Version=0.0.0.0,
      Culture=neutral, PublicKeyToken=null
  HasAlternative3: 1
  AlternativeText3: Alright
  Alternative3TriggerEvents:
    m_PersistentCalls:
      m_Calls:
      - m_Target: {fileID: 114843874743519716, guid: 49c08996551809b419c90187db8c821a,
          type: 2}
        m_MethodName: ShowLine
        m_Mode: 3
        m_Arguments:
          m_ObjectArgument: {fileID: 0}
          m_ObjectArgumentAssemblyTypeName: UnityEngine.Object, UnityEngine
          m_IntArgument: 4
          m_FloatArgument: 0
          m_StringArgument: 
          m_BoolArgument: 0
        m_CallState: 2
    m_TypeName: UnityEngine.Events.UnityEvent, UnityEngine.CoreModule, Version=0.0.0.0,
      Culture=neutral, PublicKeyToken=null
  OverrideNPC: 0
  NPCName: 
  NPCThumbnail: {fileID: 0}
  OnOpenTriggerEvents:
    m_PersistentCalls:
      m_Calls: []
    m_TypeName: UnityEngine.Events.UnityEvent, UnityEngine.CoreModule, Version=0.0.0.0,
      Culture=neutral, PublicKeyToken=null
  OnCloseTriggerEvents:
    m_PersistentCalls:
      m_Calls: []
    m_TypeName: UnityEngine.Events.UnityEvent, UnityEngine.CoreModule, Version=0.0.0.0,
      Culture=neutral, PublicKeyToken=null
