%YAML 1.1
%TAG !u! tag:unity3d.com,2011:
--- !u!114 &11400000
MonoBehaviour:
  m_ObjectHideFlags: 0
  m_PrefabParentObject: {fileID: 0}
  m_PrefabInternal: {fileID: 0}
  m_GameObject: {fileID: 0}
  m_Enabled: 1
  m_EditorHideFlags: 0
  m_Script: {fileID: 11500000, guid: ba651425b43d51c48bb43ba7cdeb9d51, type: 3}
  m_Name: QuestTheWander
  m_EditorClassIdentifier: 
  questName: The Wanderer's Tale
  complete: 0
  unique: 1
  stageDescription: Hello
  Appeals: 000000000a00000008000000
