%YAML 1.1
%TAG !u! tag:unity3d.com,2011:
--- !u!114 &11400000
MonoBehaviour:
  m_ObjectHideFlags: 0
  m_PrefabParentObject: {fileID: 0}
  m_PrefabInternal: {fileID: 0}
  m_GameObject: {fileID: 0}
  m_Enabled: 1
  m_EditorHideFlags: 0
  m_Script: {fileID: 11500000, guid: b4cd8eb24603b4eb7ba585718f01507f, type: 3}
  m_Name: wandererMeeting
  m_EditorClassIdentifier: 
  HasCloseButton: 1
  Lines:
  - {fileID: 11400000, guid: a4d19d92902728d40a337746ce68a28f, type: 2}
  - {fileID: 11400000, guid: 15db44e3053db394c9a544d037514ae0, type: 2}
  - {fileID: 11400000, guid: 1e12af221a6c66143ad5a47ed697723a, type: 2}
  - {fileID: 11400000, guid: 2bc127461fc8bf044a0d25bf98284ed6, type: 2}
  - {fileID: 11400000, guid: 38a9d0ae641610746ae52c911b7bc6b9, type: 2}
  - {fileID: 11400000, guid: 2995c3b07e52040fe85ab3b4af07407a, type: 2}
  - {fileID: 11400000, guid: 04dea0533439c64439c86541faf8c300, type: 2}
  - {fileID: 11400000, guid: 16cef9c487a3dc1428f8416d6c2a3e7c, type: 2}
  - {fileID: 11400000, guid: 37bf91a16edac94458fe1ecbd1e3bd4a, type: 2}
