%YAML 1.1
%TAG !u! tag:unity3d.com,2011:
--- !u!114 &11400000
MonoBehaviour:
  m_ObjectHideFlags: 0
  m_PrefabParentObject: {fileID: 0}
  m_PrefabInternal: {fileID: 0}
  m_GameObject: {fileID: 0}
  m_Enabled: 1
  m_EditorHideFlags: 0
  m_Script: {fileID: 11500000, guid: 871de7d357e814bfbb698fd4d7380a10, type: 3}
  m_Name: 2
  m_EditorClassIdentifier: 
  Line: That's two. Gotta find the last one.
  IsAutoClosing: 1
  AutoCloseTimeout: 3
  HasPrev: 0
  PrevText: Prev
  HasNext: 0
  NextText: Next
  HasAlternative1: 0
  AlternativeText1: 
  Alternative1TriggerEvents:
    m_PersistentCalls:
      m_Calls: []
    m_TypeName: UnityEngine.Events.UnityEvent, UnityEngine.CoreModule, Version=0.0.0.0,
      Culture=neutral, PublicKeyToken=null
  HasAlternative2: 0
  AlternativeText2: 
  Alternative2TriggerEvents:
    m_PersistentCalls:
      m_Calls: []
    m_TypeName: UnityEngine.Events.UnityEvent, UnityEngine.CoreModule, Version=0.0.0.0,
      Culture=neutral, PublicKeyToken=null
  OverrideNPC: 0
  NPCName: 
  NPCThumbnail: {fileID: 0}
  OnOpenTriggerEvents:
    m_PersistentCalls:
      m_Calls: []
    m_TypeName: UnityEngine.Events.UnityEvent, UnityEngine.CoreModule, Version=0.0.0.0,
      Culture=neutral, PublicKeyToken=null
  OnCloseTriggerEvents:
    m_PersistentCalls:
      m_Calls: []
    m_TypeName: UnityEngine.Events.UnityEvent, UnityEngine.CoreModule, Version=0.0.0.0,
      Culture=neutral, PublicKeyToken=null
