%YAML 1.1
%TAG !u! tag:unity3d.com,2011:
--- !u!114 &11400000
MonoBehaviour:
  m_ObjectHideFlags: 0
  m_PrefabParentObject: {fileID: 0}
  m_PrefabInternal: {fileID: 0}
  m_GameObject: {fileID: 0}
  m_Enabled: 1
  m_EditorHideFlags: 0
  m_Script: {fileID: 11500000, guid: 871de7d357e814bfbb698fd4d7380a10, type: 3}
  m_Name: 1
  m_EditorClassIdentifier: 
  Line: 'I seem to have misplaced my orbs somewhere around here. There''s 3 of them.  '
  IsAutoClosing: 0
  AutoCloseTimeout: 0
  HasPrev: 1
  PrevText: Prev
  HasNext: 1
  NextText: Next
  HasAlternative1: 0
  AlternativeText1: 
  Alternative1TriggersEvents:
    m_PersistentCalls:
      m_Calls: []
    m_TypeName: UnityEngine.Events.UnityEvent, UnityEngine.CoreModule, Version=0.0.0.0,
      Culture=neutral, PublicKeyToken=null
  HasAlternative2: 0
  AlternativeText2: 
  Alternative2TriggersEvents:
    m_PersistentCalls:
      m_Calls: []
    m_TypeName: UnityEngine.Events.UnityEvent, UnityEngine.CoreModule, Version=0.0.0.0,
      Culture=neutral, PublicKeyToken=null
  OverrideNPC: 0
  NPCName: 
  NPCThumbnail: {fileID: 0}
